{
  "type": "service_account",
  "project_id": "api-7139988095524017349-420454",
  "private_key_id": "8a9a4cbaa57ba8f5dde1b7477f445357661de89c",
  "private_key": "-----BEGIN PRIVATE KEY-----\nMIIEvgIBADANBgkqhkiG9w0BAQEFAASCBKgwggSkAgEAAoIBAQCbA/QNhTBxGb1T\nly4AxbIEEfBnEmi0q6p5KemvIczJqa0VN3cx0P/J6IUufMdu3p0ulUHbuE+U/8Os\nHmLaOj1EirhZO0+Jr80ytv7cNVIHj9vbULvcybA2V3XHGbuJm1+FOq/aV6VczeMu\n5ecQidpnhjYHc1u2bB8zWPMn4uWAmq/uPFNnABJVmScNdF1U5/lYmr3rq2IMY5Fm\nnj3GbFeldoZHzEZ31baioth6yl9EgQ/jKZeoKAeXZoUXYp7YfZHHQ2Ab8jtrnSv6\n69eLhmf+QW8rUO+iTbOTMw2hhjRMr9LLibZDxnc0yN0U1KPVhEp9gkdBC6BWIwgC\nQK1iBIO1AgMBAAECggEADgGV8BDMNzPlrONYhz5VntOGHrIFnulx3j/Auw+5QrFf\nj66yyOAC9JnbSr+Af46Csj5PNIybODHB2s/mC6S+e25zSLC4t46YYlAxh/ETZ9aC\nPXc2ejUJBGfzntk+3iiZQV7zm61WpiN+NvMT5SUnhDoWsKamLz3mtcuAMObp6Kwt\nTn9Iv1/FW+1CVQebgXA3IPa9Sd3Wmor7s2k15xmgVrPGEsG5NvdNaTxCwZSNC+zZ\nhcrE9yR36JkKAEQxIopPhSfD4z0YhH37rF8pqT8B6cuV7KgGVJeDWEGq2gINMLDI\nLc2A0JmYumGsIDuajeVpqhfko4XHfynpbGltF93nUwKBgQDUEPfkVgat/bRRxIYQ\nltSSshN/6XQMQIewORvt8eYahrnCC3ejs7lDJZYjt9bJfwGKW5LWFE24BrYYFjCp\nlo9nxmU2OEXetjDE0LVuGQFNrZ6D+VHEtoUkv4xYX3MNehrXQPS3VK9Eqz8mLA5m\nV3GWzMSGTuHN2XpPCzAlczs+0wKBgQC7IUSNj1HbVOferOh7xvjae9ILdyz17xFe\neDJXFGuhxbIThbnonwno596DRHZQYnqje8YbIxWO9mU4DbPajTM5nJmNWFYaR0oG\nssTRUR2ekjK+OSdlWCxtX/uRf1bSvzcQ6oGwAkoh6lbffKP3WRxiIeY1hoS9J37T\noBv8wV7uVwKBgQCQZuWFtBZkT8eDjkCD91DUezHP/dWpqh87HggopHk9QtQmj8xt\nyimy0VtFAx/coQEZh3WbFMQ/NUK1cBa+w+jujyfIHdVl68WVn1CLobdDf5/a2eCW\nBHrxJQWZ/5TGbojsXizE0YNvTPR5N7KueYi9WL3RftE/bIFeZY3pUmfbRQKBgQCo\ndXx3S4xPPRI33cS0mRyx40Hl3HV3OK6UMvRufA2g5o43EO2ZwoJzTzl7RoiUOPNa\ndTSUfXMM7jeUzJEasH5q4NVC70EkCwVTHmAcZz+Y3tgbcuxKSaRFGmEoTFBnDIiQ\nC+yP/J+sBIAMVPJu26O3m/jYOq8IcaO086/+TD4fpQKBgHVt9Ta7f1VR2AVIrJky\n4POrAwXYTbNR9cUhiJaxO+f6uP04nwtsxe7hoq/Ig6mwlQEKE8736LmixAtne67h\nSRt8ck+JKi50y6t0xVqeM+jOmifWbhqYhZ5Etxdww45c8g370Q3o+sy72uAtOfEE\nXy2eqF12OO/bErUuaFdS8s2U\n-----END PRIVATE KEY-----\n",
  "client_email": "cargodeal@api-7139988095524017349-420454.iam.gserviceaccount.com",
  "client_id": "102315992856491177166",
  "auth_uri": "https://accounts.google.com/o/oauth2/auth",
  "token_uri": "https://oauth2.googleapis.com/token",
  "auth_provider_x509_cert_url": "https://www.googleapis.com/oauth2/v1/certs",
  "client_x509_cert_url": "https://www.googleapis.com/robot/v1/metadata/x509/cargodeal%40api-7139988095524017349-420454.iam.gserviceaccount.com"
}
